[0414/144211.079:ERROR:file_io_win.cc(163)] CreateFile C:\Program Files (x86)\temp\settings.dat: Access is denied. (0x5)
[0414/144211.179:ERROR:registration_protocol_win.cc(83)] TransactNamedPipe: The pipe has been ended. (0x6D)
[0414/144211.199:ERROR:crashpad_win.cc(223)] Crashpad handler failed to start, crash reporting disabled
